%YAML 1.1
%TAG !u! tag:unity3d.com,2011:
--- !u!1045 &1
EditorBuildSettings:
  m_ObjectHideFlags: 0
  serializedVersion: 2
  m_Scenes:
  - enabled: 1
    path: Assets/Scenes/intro.unity
    guid: c29219ec28c4cf741bffdd7c8a80fb13
  - enabled: 1
    path: Assets/Scenes/level.unity
    guid: e7990009d85a513469b9a5dc5955d161
